(footprint "Buzzer_D22mm_H12mm_P10mm" (version 20211014) (generator pcbnew)
  (layer "F.Cu")
  (tedit 6215E39B)
  (descr "Generic Buzzer, D14mm height 7mm with pitch 10mm")
  (tags "buzzer")
  (attr through_hole)
  (fp_text reference "REF**" (at 5.16 -8.23) (layer "F.SilkS")
    (effects (font (size 1 1) (thickness 0.15)))
    (tstamp ccc86916-95e2-45f0-adb0-3defe77e9622)
  )
  (fp_text value "Buzzer_D22mm_H12mm_P10mm" (at 4.69 8.41) (layer "F.Fab")
    (effects (font (size 1 1) (thickness 0.15)))
    (tstamp 54544db1-1545-4e8a-9e3e-7a9e25bdbcba)
  )
  (fp_text user "+" (at -0.01 -2.54) (layer "F.SilkS")
    (effects (font (size 1 1) (thickness 0.15)))
    (tstamp b4d03d4b-071e-4f28-a642-184dd5d7f173)
  )
  (fp_text user "${REFERENCE}" (at 5.32 2.27) (layer "F.Fab")
    (effects (font (size 1 1) (thickness 0.15)))
    (tstamp 0fbf60a4-f458-405a-93f4-d99e185a6f26)
  )
  (fp_text user "+" (at -0.01 -2.54) (layer "F.Fab")
    (effects (font (size 1 1) (thickness 0.15)))
    (tstamp 7d04f4ab-b19e-4b74-a65e-4cc406872952)
  )
  (fp_circle (center 5 0) (end 16 0) (layer "F.SilkS") (width 0.12) (fill none) (tstamp d236e9fe-f3c0-40a4-ae17-d00601a6cad6))
  (fp_circle (center 5 0) (end 16.1 0) (layer "F.CrtYd") (width 0.05) (fill none) (tstamp 0d77dba3-619b-4302-95f4-da122433f976))
  (fp_circle (center 5 0) (end 15.9 0) (layer "F.Fab") (width 0.1) (fill none) (tstamp 01aa1122-58d9-4e97-9446-53994d3df4d3))
  (fp_circle (center 5 0) (end 6 0) (layer "F.Fab") (width 0.1) (fill none) (tstamp 91b9e1d5-adf5-4d29-b49c-cba919304de7))
  (pad "1" thru_hole rect (at 0 0) (size 2 2) (drill 1) (layers *.Cu *.Mask) (tstamp 5b2e2b84-4fac-42ef-92b8-d00d423a6e98))
  (pad "2" thru_hole circle (at 10 0) (size 2 2) (drill 1) (layers *.Cu *.Mask) (tstamp 335905e3-9ef6-4769-8b60-130204593459))
  (model "${KICAD6_3DMODEL_DIR}/Buzzer_Beeper.3dshapes/Buzzer_D14mm_H7mm_P10mm.wrl"
    (offset (xyz 0 0 0))
    (scale (xyz 1 1 1))
    (rotate (xyz 0 0 0))
  )
)
